Esmerald. Experience sampling made easy.
…
The result is a table of class tbl_esm.

class(ESM_1)

## [1] "tbl_esm_eth" "tbl_df"      "tbl"         "data.frame"

But the fact that we use S3 classes shouldnt bother you. It just makes it easier for us to create a convenient interface. For example, if you just call the ESM_1 object like this:

ESM_1

you get a useful summary of the data set:

## # A tibble: 336 x 10
##      Obs Activity Part      Device       T_Scheduled         T_Issued           
##    <int>    <dbl> <chr>     <chr>        <dttm>              <dttm>             
##  1     1     5716 User #25~ 5a0a109eb4e~ 2020-04-12 10:49:08 2020-04-12 10:54:15
##  2     2     5716 User #25~ 5a0a109eb4e~ 2020-04-12 10:49:08 2020-04-12 10:54:15
##  3     3     5716 User #25~ 5a0a109eb4e~ 2020-04-12 10:49:08 2020-04-12 10:54:15
##  4     4     5716 User #25~ 5a0a109eb4e~ 2020-04-12 10:49:08 2020-04-12 10:54:15
##  5     5     5716 User #25~ 5a0a109eb4e~ 2020-04-12 10:49:08 2020-04-12 10:54:15
##  6     6     5716 User #25~ 5a0a109eb4e~ 2020-04-12 10:49:08 2020-04-12 10:54:15
##  7     7     5716 User #25~ 5a0a109eb4e~ 2020-04-12 10:49:08 2020-04-12 10:54:15
##  8     8     5716 User #25~ 25323b1aa89~ 2020-04-11 10:55:19 2020-04-11 11:55:20
##  9     9     5716 User #25~ 25323b1aa89~ 2020-04-11 10:55:19 2020-04-11 11:55:20
## 10    10     5716 User #25~ 25323b1aa89~ 2020-04-11 10:55:19 2020-04-11 11:55:20
## # ... with 326 more rows, and 4 more variables: T_Response <dttm>,
## #   Item_raw <chr>, Response <chr>, response <dbl>

ESM_1 is in long format. Every measure gets its own row. The long format also makes it very easy to combine a group of files into one ESM table. If you know a little programming already, you might think that processing a list of objects requires a loop. In R, this is much easier. map_df takes a list of file names as input, applies the function read_ethica_csv a number of times and merges the results into one ESM table.

ESM_2 <- 
  csv[2:6] %>% 
  map_df(read_ethica_csv)
ESM_2

## # A tibble: 7,272 x 10
##      Obs Activity Part      Device       T_Scheduled         T_Issued           
##    <int>    <dbl> <chr>     <chr>        <dttm>              <dttm>             
##  1     1     5716 User #25~ 5a0a109eb4e~ 2020-04-12 10:49:08 2020-04-12 10:54:15
##  2     2     5716 User #25~ 5a0a109eb4e~ 2020-04-12 10:49:08 2020-04-12 10:54:15
##  3     3     5716 User #25~ 5a0a109eb4e~ 2020-04-12 10:49:08 2020-04-12 10:54:15
##  4     4     5716 User #25~ 5a0a109eb4e~ 2020-04-12 10:49:08 2020-04-12 10:54:15
##  5     5     5716 User #25~ 5a0a109eb4e~ 2020-04-12 10:49:08 2020-04-12 10:54:15
##  6     6     5716 User #25~ 5a0a109eb4e~ 2020-04-12 10:49:08 2020-04-12 10:54:15
##  7     7     5716 User #25~ 5a0a109eb4e~ 2020-04-12 10:49:08 2020-04-12 10:54:15
##  8     8     5716 User #25~ 25323b1aa89~ 2020-04-11 10:55:19 2020-04-11 11:55:20
##  9     9     5716 User #25~ 25323b1aa89~ 2020-04-11 10:55:19 2020-04-11 11:55:20
## 10    10     5716 User #25~ 25323b1aa89~ 2020-04-11 10:55:19 2020-04-11 11:55:20
## # ... with 7,262 more rows, and 4 more variables: T_Response <dttm>,
## #   Item_raw <chr>, Response <chr>, response <dbl>
…
colnames(D_Parts) <- 
  c("Part", "Device", 
    "T_Scheduled", "T_Issued", "T_Response", "duration", 
    "Location", "Informed_consent", "Gender", "Nationality", "Nationality_free", "age")

D_Parts <- D_Parts %>% 
  select(Part, Location:age)

D_Parts

## # A tibble: 36 x 7
##    Part   Location Informed_consent    Gender Nationality Nationality_free   age
##    <chr>  <chr>    <chr>               <chr>  <chr>       <chr>            <dbl>
##  1 User ~ Unknown  (ID 1) I understan~ (ID 1~ (ID 2) Dut~ <NA>                20
##  2 User ~ Unknown  (ID 1) I understan~ (ID 2~ (ID 3) Oth~ Irish               21
##  3 User ~ Unknown  (ID 1) I understan~ (ID 2~ (ID 3) Oth~ IrishIrishIrish     21
##  4 User ~ Unknown  (ID 1) I understan~ (ID 2~ (ID 3) Oth~ IrishIrish          21
##  5 User ~ Unknown  (ID 1) I understan~ (ID 1~ (ID 1) Ger~ <NA>                21
##  6 User ~ Unknown  (ID 1) I understan~ (ID 1~ (ID 1) Ger~ <NA>                21
##  7 User ~ Unknown  (ID 1) I understan~ (ID 2~ (ID 3) Oth~ BulgarianBulgar~    23
##  8 User ~ Unknown  (ID 1) I understan~ (ID 1~ (ID 3) Oth~ IndianIndian        19
##  9 User ~ Unknown  (ID 1) I understan~ (ID 2~ (ID 2) Dut~ <NA>                30
## 10 User ~ Unknown  (ID 1) I understan~ (ID 1~ (ID 2) Dut~ <NA>                20
## # ... with 26 more rows
…
